solid ascii
  facet normal -1.000000e+000 0.000000e+000 2.081668e-016
    outer loop
      vertex   -3.217993e-001 0.000000e+000 -2.615917e-001
      vertex   -3.217993e-001 0.000000e+000 5.384083e-001
      vertex   -3.217993e-001 8.000000e-001 -2.615917e-001
    endloop
  endfacet
  facet normal -1.000000e+000 0.000000e+000 2.081668e-016
    outer loop
      vertex   -3.217993e-001 8.000000e-001 -2.615917e-001
      vertex   -3.217993e-001 0.000000e+000 5.384083e-001
      vertex   -3.217993e-001 8.000000e-001 5.384083e-001
    endloop
  endfacet
  facet normal 0.000000e+000 6.938894e-017 -1.000000e+000
    outer loop
      vertex   4.782007e-001 0.000000e+000 -2.615917e-001
      vertex   -3.217993e-001 0.000000e+000 -2.615917e-001
      vertex   4.782007e-001 8.000000e-001 -2.615917e-001
    endloop
  endfacet
  facet normal 0.000000e+000 6.938894e-017 -1.000000e+000
    outer loop
      vertex   4.782007e-001 8.000000e-001 -2.615917e-001
      vertex   -3.217993e-001 0.000000e+000 -2.615917e-001
      vertex   -3.217993e-001 8.000000e-001 -2.615917e-001
    endloop
  endfacet
  facet normal 1.000000e+000 0.000000e+000 -6.938894e-017
    outer loop
      vertex   4.782007e-001 0.000000e+000 5.384083e-001
      vertex   4.782007e-001 0.000000e+000 -2.615917e-001
      vertex   4.782007e-001 8.000000e-001 5.384083e-001
    endloop
  endfacet
  facet normal 1.000000e+000 4.814825e-033 -6.938894e-017
    outer loop
      vertex   4.782007e-001 8.000000e-001 5.384083e-001
      vertex   4.782007e-001 0.000000e+000 -2.615917e-001
      vertex   4.782007e-001 8.000000e-001 -2.615917e-001
    endloop
  endfacet
  facet normal 0.000000e+000 -0.000000e+000 1.000000e+000
    outer loop
      vertex   -3.217993e-001 0.000000e+000 5.384083e-001
      vertex   4.782007e-001 0.000000e+000 5.384083e-001
      vertex   -3.217993e-001 8.000000e-001 5.384083e-001
    endloop
  endfacet
  facet normal -0.000000e+000 0.000000e+000 1.000000e+000
    outer loop
      vertex   -3.217993e-001 8.000000e-001 5.384083e-001
      vertex   4.782007e-001 0.000000e+000 5.384083e-001
      vertex   4.782007e-001 8.000000e-001 5.384083e-001
    endloop
  endfacet
  facet normal 0.000000e+000 1.000000e+000 0.000000e+000
    outer loop
      vertex   4.782007e-001 8.000000e-001 5.384083e-001
      vertex   4.782007e-001 8.000000e-001 -2.615917e-001
      vertex   -3.217993e-001 8.000000e-001 5.384083e-001
    endloop
  endfacet
  facet normal 0.000000e+000 1.000000e+000 0.000000e+000
    outer loop
      vertex   -3.217993e-001 8.000000e-001 5.384083e-001
      vertex   4.782007e-001 8.000000e-001 -2.615917e-001
      vertex   -3.217993e-001 8.000000e-001 -2.615917e-001
    endloop
  endfacet
  facet normal 0.000000e+000 -1.000000e+000 -0.000000e+000
    outer loop
      vertex   -3.217993e-001 0.000000e+000 5.384083e-001
      vertex   -3.217993e-001 0.000000e+000 -2.615917e-001
      vertex   4.782007e-001 0.000000e+000 5.384083e-001
    endloop
  endfacet
  facet normal 0.000000e+000 -1.000000e+000 -0.000000e+000
    outer loop
      vertex   4.782007e-001 0.000000e+000 5.384083e-001
      vertex   -3.217993e-001 0.000000e+000 -2.615917e-001
      vertex   4.782007e-001 0.000000e+000 -2.615917e-001
    endloop
  endfacet
endsolid
